ADS Final Project User Behavior & Course Completion
…
the UserID column was removed as it is not necessary for the data analysis.

# Remove UserID column
data = dplyr::select(data, -UserID)

5.4 Checking for NA’s and removing unnecessary columns and rows

All of the duplicated observations were also removed by executing the following code:

# Check for duplicates
duplicates = data[duplicated(data), ] # 877 duplicated rows
duplicates

# A tibble: 877 × 8
   CourseCategory TimeSpentOnCourse NumberOfVideosWatched NumberOfQuizzesTaken
   <chr>                      <dbl>                 <int>                <int>
 1 Programming                76.3                      0                    9
 2 Science                    60.9                      4                   10
 3 Health                      4.18                    15                    6
 4 Science                    93.5                      6                    7
 5 Business                   19.7                      2                    4
 6 Health                     70.2                      5                    4
 7 Health                     27.3                     17                    3
 8 Science                    91.6                      4                    3
 9 Business                   20.4                      6                    0
10 Science                    21.9                      7                    9
# ℹ 867 more rows
# ℹ 4 more variables: QuizScores <dbl>, CompletionRate <dbl>, DeviceType <int>,
#   CourseCompletion <int>
…
